--debug
--sgen-conc
/target-framework:Xamarin.iOS,Version=v1.0
--http-message-handler=NSUrlSessionHandler
"--cache=/Users/ocontreras/Projects/CursoXamarin/CursoXamarin.iOS/obj/iPhoneSimulator/Debug/device-builds/ipod touch (7th generation)-14.5/mtouch-cache"
--root-assembly=/Users/ocontreras/Projects/CursoXamarin/CursoXamarin.iOS/bin/iPhoneSimulator/Debug/CursoXamarin.iOS.exe
--sdkroot=/Applications/Xcode.app/Contents/Developer
--targetver=8.0
"--sim=/Users/ocontreras/Projects/CursoXamarin/CursoXamarin.iOS/bin/iPhoneSimulator/Debug/device-builds/ipod touch (7th generation)-14.5/CursoXamarin.iOS.app"
--executable=CursoXamarin.iOS
--nolink
--sdk=14.5
--aot-options=-O=-float32
--abi=x86_64
"--symbollist=/Users/ocontreras/Projects/CursoXamarin/CursoXamarin.iOS/obj/iPhoneSimulator/Debug/device-builds/ipod touch (7th generation)-14.5/mtouch-symbols.list"
--dsym=no
--reference=/Users/ocontreras/Projects/CursoXamarin/CursoXamarin/bin/Debug/netstandard2.0/CursoXamarin.dll
--reference=/Library/Frameworks/Xamarin.iOS.framework/Versions/Current/lib/mono/Xamarin.iOS/mscorlib.dll
--reference=/Library/Frameworks/Xamarin.iOS.framework/Versions/Current/lib/mono/Xamarin.iOS/OpenTK-1.0.dll
--reference=/Library/Frameworks/Xamarin.iOS.framework/Versions/Current/lib/mono/Xamarin.iOS/System.Core.dll
--reference=/Library/Frameworks/Xamarin.iOS.framework/Versions/Current/lib/mono/Xamarin.iOS/System.dll
--reference=/Library/Frameworks/Xamarin.iOS.framework/Versions/Current/lib/mono/Xamarin.iOS/Facades/System.Drawing.Common.dll
--reference=/Library/Frameworks/Xamarin.iOS.framework/Versions/Current/lib/mono/Xamarin.iOS/System.Numerics.dll
--reference=/Library/Frameworks/Xamarin.iOS.framework/Versions/Current/lib/mono/Xamarin.iOS/System.Numerics.Vectors.dll
--reference=/Library/Frameworks/Xamarin.iOS.framework/Versions/Current/lib/mono/Xamarin.iOS/System.Xml.dll
--reference=/Library/Frameworks/Xamarin.iOS.framework/Versions/Current/lib/mono/Xamarin.iOS/Xamarin.iOS.dll
--reference=/Library/Frameworks/Xamarin.iOS.framework/Versions/Current/lib/mono/Xamarin.iOS/Facades/Microsoft.Win32.Primitives.dll
--reference=/Library/Frameworks/Xamarin.iOS.framework/Versions/Current/lib/mono/Xamarin.iOS/Facades/Microsoft.Win32.Registry.AccessControl.dll
--reference=/Library/Frameworks/Xamarin.iOS.framework/Versions/Current/lib/mono/Xamarin.iOS/Facades/Microsoft.Win32.Registry.dll
--reference=/Library/Frameworks/Xamarin.iOS.framework/Versions/Current/lib/mono/Xamarin.iOS/Facades/netstandard.dll
--reference=/Library/Frameworks/Xamarin.iOS.framework/Versions/Current/lib/mono/Xamarin.iOS/Facades/System.AppContext.dll
--reference=/Library/Frameworks/Xamarin.iOS.framework/Versions/Current/lib/mono/Xamarin.iOS/Facades/System.Buffers.dll
--reference=/Library/Frameworks/Xamarin.iOS.framework/Versions/Current/lib/mono/Xamarin.iOS/Facades/System.Collections.Concurrent.dll
--reference=/Library/Frameworks/Xamarin.iOS.framework/Versions/Current/lib/mono/Xamarin.iOS/Facades/System.Collections.dll
--reference=/Library/Frameworks/Xamarin.iOS.framework/Versions/Current/lib/mono/Xamarin.iOS/Facades/System.Collections.NonGeneric.dll
--reference=/Library/Frameworks/Xamarin.iOS.framework/Versions/Current/lib/mono/Xamarin.iOS/Facades/System.Collections.Specialized.dll
--reference=/Library/Frameworks/Xamarin.iOS.framework/Versions/Current/lib/mono/Xamarin.iOS/Facades/System.ComponentModel.Annotations.dll
--reference=/Library/Frameworks/Xamarin.iOS.framework/Versions/Current/lib/mono/Xamarin.iOS/Facades/System.ComponentModel.dll
--reference=/Library/Frameworks/Xamarin.iOS.framework/Versions/Current/lib/mono/Xamarin.iOS/Facades/System.ComponentModel.EventBasedAsync.dll
--reference=/Library/Frameworks/Xamarin.iOS.framework/Versions/Current/lib/mono/Xamarin.iOS/Facades/System.ComponentModel.Primitives.dll
--reference=/Library/Frameworks/Xamarin.iOS.framework/Versions/Current/lib/mono/Xamarin.iOS/Facades/System.ComponentModel.TypeConverter.dll
--reference=/Library/Frameworks/Xamarin.iOS.framework/Versions/Current/lib/mono/Xamarin.iOS/Facades/System.Console.dll
--reference=/Library/Frameworks/Xamarin.iOS.framework/Versions/Current/lib/mono/Xamarin.iOS/Facades/System.Data.Common.dll
--reference=/Library/Frameworks/Xamarin.iOS.framework/Versions/Current/lib/mono/Xamarin.iOS/Facades/System.Data.SqlClient.dll
--reference=/Library/Frameworks/Xamarin.iOS.framework/Versions/Current/lib/mono/Xamarin.iOS/Facades/System.Diagnostics.Contracts.dll
--reference=/Library/Frameworks/Xamarin.iOS.framework/Versions/Current/lib/mono/Xamarin.iOS/Facades/System.Diagnostics.Debug.dll
--reference=/Library/Frameworks/Xamarin.iOS.framework/Versions/Current/lib/mono/Xamarin.iOS/Facades/System.Diagnostics.FileVersionInfo.dll
--reference=/Library/Frameworks/Xamarin.iOS.framework/Versions/Current/lib/mono/Xamarin.iOS/Facades/System.Diagnostics.Process.dll
--reference=/Library/Frameworks/Xamarin.iOS.framework/Versions/Current/lib/mono/Xamarin.iOS/Facades/System.Diagnostics.StackTrace.dll
--reference=/Library/Frameworks/Xamarin.iOS.framework/Versions/Current/lib/mono/Xamarin.iOS/Facades/System.Diagnostics.TextWriterTraceListener.dll
--reference=/Library/Frameworks/Xamarin.iOS.framework/Versions/Current/lib/mono/Xamarin.iOS/Facades/System.Diagnostics.Tools.dll
--reference=/Library/Frameworks/Xamarin.iOS.framework/Versions/Current/lib/mono/Xamarin.iOS/Facades/System.Diagnostics.TraceEvent.dll
--reference=/Library/Frameworks/Xamarin.iOS.framework/Versions/Current/lib/mono/Xamarin.iOS/Facades/System.Diagnostics.TraceSource.dll
--reference=/Library/Frameworks/Xamarin.iOS.framework/Versions/Current/lib/mono/Xamarin.iOS/Facades/System.Diagnostics.Tracing.dll
--reference=/Library/Frameworks/Xamarin.iOS.framework/Versions/Current/lib/mono/Xamarin.iOS/Facades/System.Drawing.Primitives.dll
--reference=/Library/Frameworks/Xamarin.iOS.framework/Versions/Current/lib/mono/Xamarin.iOS/Facades/System.Dynamic.Runtime.dll
--reference=/Library/Frameworks/Xamarin.iOS.framework/Versions/Current/lib/mono/Xamarin.iOS/Facades/System.Globalization.Calendars.dll
--reference=/Library/Frameworks/Xamarin.iOS.framework/Versions/Current/lib/mono/Xamarin.iOS/Facades/System.Globalization.dll
--reference=/Library/Frameworks/Xamarin.iOS.framework/Versions/Current/lib/mono/Xamarin.iOS/Facades/System.Globalization.Extensions.dll
--reference=/Library/Frameworks/Xamarin.iOS.framework/Versions/Current/lib/mono/Xamarin.iOS/Facades/System.IO.Compression.ZipFile.dll
--reference=/Library/Frameworks/Xamarin.iOS.framework/Versions/Current/lib/mono/Xamarin.iOS/Facades/System.IO.dll
--reference=/Library/Frameworks/Xamarin.iOS.framework/Versions/Current/lib/mono/Xamarin.iOS/Facades/System.IO.FileSystem.AccessControl.dll
--reference=/Library/Frameworks/Xamarin.iOS.framework/Versions/Current/lib/mono/Xamarin.iOS/Facades/System.IO.FileSystem.dll
--reference=/Library/Frameworks/Xamarin.iOS.framework/Versions/Current/lib/mono/Xamarin.iOS/Facades/System.IO.FileSystem.DriveInfo.dll
--reference=/Library/Frameworks/Xamarin.iOS.framework/Versions/Current/lib/mono/Xamarin.iOS/Facades/System.IO.FileSystem.Primitives.dll
--reference=/Library/Frameworks/Xamarin.iOS.framework/Versions/Current/lib/mono/Xamarin.iOS/Facades/System.IO.FileSystem.Watcher.dll
--reference=/Library/Frameworks/Xamarin.iOS.framework/Versions/Current/lib/mono/Xamarin.iOS/Facades/System.IO.IsolatedStorage.dll
--reference=/Library/Frameworks/Xamarin.iOS.framework/Versions/Current/lib/mono/Xamarin.iOS/Facades/System.IO.MemoryMappedFiles.dll
--reference=/Library/Frameworks/Xamarin.iOS.framework/Versions/Current/lib/mono/Xamarin.iOS/Facades/System.IO.Pipes.dll
--reference=/Library/Frameworks/Xamarin.iOS.framework/Versions/Current/lib/mono/Xamarin.iOS/Facades/System.IO.UnmanagedMemoryStream.dll
--reference=/Library/Frameworks/Xamarin.iOS.framework/Versions/Current/lib/mono/Xamarin.iOS/Facades/System.Linq.dll
--reference=/Library/Frameworks/Xamarin.iOS.framework/Versions/Current/lib/mono/Xamarin.iOS/Facades/System.Linq.Expressions.dll
--reference=/Library/Frameworks/Xamarin.iOS.framework/Versions/Current/lib/mono/Xamarin.iOS/Facades/System.Linq.Parallel.dll
--reference=/Library/Frameworks/Xamarin.iOS.framework/Versions/Current/lib/mono/Xamarin.iOS/Facades/System.Linq.Queryable.dll
--reference=/Library/Frameworks/Xamarin.iOS.framework/Versions/Current/lib/mono/Xamarin.iOS/Facades/System.Memory.dll
--reference=/Library/Frameworks/Xamarin.iOS.framework/Versions/Current/lib/mono/Xamarin.iOS/Facades/System.Net.AuthenticationManager.dll
--reference=/Library/Frameworks/Xamarin.iOS.framework/Versions/Current/lib/mono/Xamarin.iOS/Facades/System.Net.Cache.dll
--reference=/Library/Frameworks/Xamarin.iOS.framework/Versions/Current/lib/mono/Xamarin.iOS/Facades/System.Net.HttpListener.dll
--reference=/Library/Frameworks/Xamarin.iOS.framework/Versions/Current/lib/mono/Xamarin.iOS/Facades/System.Net.Mail.dll
--reference=/Library/Frameworks/Xamarin.iOS.framework/Versions/Current/lib/mono/Xamarin.iOS/Facades/System.Net.NameResolution.dll
--reference=/Library/Frameworks/Xamarin.iOS.framework/Versions/Current/lib/mono/Xamarin.iOS/Facades/System.Net.NetworkInformation.dll
--reference=/Library/Frameworks/Xamarin.iOS.framework/Versions/Current/lib/mono/Xamarin.iOS/Facades/System.Net.Ping.dll
--reference=/Library/Frameworks/Xamarin.iOS.framework/Versions/Current/lib/mono/Xamarin.iOS/Facades/System.Net.Primitives.dll
--reference=/Library/Frameworks/Xamarin.iOS.framework/Versions/Current/lib/mono/Xamarin.iOS/Facades/System.Net.Requests.dll
--reference=/Library/Frameworks/Xamarin.iOS.framework/Versions/Current/lib/mono/Xamarin.iOS/Facades/System.Net.Security.dll
--reference=/Library/Frameworks/Xamarin.iOS.framework/Versions/Current/lib/mono/Xamarin.iOS/Facades/System.Net.ServicePoint.dll
--reference=/Library/Frameworks/Xamarin.iOS.framework/Versions/Current/lib/mono/Xamarin.iOS/Facades/System.Net.Sockets.dll
--reference=/Library/Frameworks/Xamarin.iOS.framework/Versions/Current/lib/mono/Xamarin.iOS/Facades/System.Net.Utilities.dll
--reference=/Library/Frameworks/Xamarin.iOS.framework/Versions/Current/lib/mono/Xamarin.iOS/Facades/System.Net.WebHeaderCollection.dll
--reference=/Library/Frameworks/Xamarin.iOS.framework/Versions/Current/lib/mono/Xamarin.iOS/Facades/System.Net.WebSockets.Client.dll
--reference=/Library/Frameworks/Xamarin.iOS.framework/Versions/Current/lib/mono/Xamarin.iOS/Facades/System.Net.WebSockets.dll
--reference=/Library/Frameworks/Xamarin.iOS.framework/Versions/Current/lib/mono/Xamarin.iOS/Facades/System.ObjectModel.dll
--reference=/Library/Frameworks/Xamarin.iOS.framework/Versions/Current/lib/mono/Xamarin.iOS/Facades/System.Reflection.DispatchProxy.dll
--reference=/Library/Frameworks/Xamarin.iOS.framework/Versions/Current/lib/mono/Xamarin.iOS/Facades/System.Reflection.dll
--reference=/Library/Frameworks/Xamarin.iOS.framework/Versions/Current/lib/mono/Xamarin.iOS/Facades/System.Reflection.Emit.dll
--reference=/Library/Frameworks/Xamarin.iOS.framework/Versions/Current/lib/mono/Xamarin.iOS/Facades/System.Reflection.Emit.ILGeneration.dll
--reference=/Library/Frameworks/Xamarin.iOS.framework/Versions/Current/lib/mono/Xamarin.iOS/Facades/System.Reflection.Emit.Lightweight.dll
--reference=/Library/Frameworks/Xamarin.iOS.framework/Versions/Current/lib/mono/Xamarin.iOS/Facades/System.Reflection.Extensions.dll
--reference=/Library/Frameworks/Xamarin.iOS.framework/Versions/Current/lib/mono/Xamarin.iOS/Facades/System.Reflection.Primitives.dll
--reference=/Library/Frameworks/Xamarin.iOS.framework/Versions/Current/lib/mono/Xamarin.iOS/Facades/System.Reflection.TypeExtensions.dll
--reference=/Library/Frameworks/Xamarin.iOS.framework/Versions/Current/lib/mono/Xamarin.iOS/Facades/System.Resources.Reader.dll
--reference=/Library/Frameworks/Xamarin.iOS.framework/Versions/Current/lib/mono/Xamarin.iOS/Facades/System.Resources.ReaderWriter.dll
--reference=/Library/Frameworks/Xamarin.iOS.framework/Versions/Current/lib/mono/Xamarin.iOS/Facades/System.Resources.ResourceManager.dll
--reference=/Library/Frameworks/Xamarin.iOS.framework/Versions/Current/lib/mono/Xamarin.iOS/Facades/System.Resources.Writer.dll
--reference=/Library/Frameworks/Xamarin.iOS.framework/Versions/Current/lib/mono/Xamarin.iOS/Facades/System.Runtime.CompilerServices.VisualC.dll
--reference=/Library/Frameworks/Xamarin.iOS.framework/Versions/Current/lib/mono/Xamarin.iOS/Facades/System.Runtime.dll
--reference=/Library/Frameworks/Xamarin.iOS.framework/Versions/Current/lib/mono/Xamarin.iOS/Facades/System.Runtime.Extensions.dll
--reference=/Library/Frameworks/Xamarin.iOS.framework/Versions/Current/lib/mono/Xamarin.iOS/Facades/System.Runtime.Handles.dll
--reference=/Library/Frameworks/Xamarin.iOS.framework/Versions/Current/lib/mono/Xamarin.iOS/Facades/System.Runtime.InteropServices.dll
--reference=/Library/Frameworks/Xamarin.iOS.framework/Versions/Current/lib/mono/Xamarin.iOS/Facades/System.Runtime.InteropServices.RuntimeInformation.dll
--reference=/Library/Frameworks/Xamarin.iOS.framework/Versions/Current/lib/mono/Xamarin.iOS/Facades/System.Runtime.InteropServices.WindowsRuntime.dll
--reference=/Library/Frameworks/Xamarin.iOS.framework/Versions/Current/lib/mono/Xamarin.iOS/Facades/System.Runtime.Loader.dll
--reference=/Library/Frameworks/Xamarin.iOS.framework/Versions/Current/lib/mono/Xamarin.iOS/Facades/System.Runtime.Numerics.dll
--reference=/Library/Frameworks/Xamarin.iOS.framework/Versions/Current/lib/mono/Xamarin.iOS/Facades/System.Runtime.Serialization.Formatters.dll
--reference=/Library/Frameworks/Xamarin.iOS.framework/Versions/Current/lib/mono/Xamarin.iOS/Facades/System.Runtime.Serialization.Json.dll
--reference=/Library/Frameworks/Xamarin.iOS.framework/Versions/Current/lib/mono/Xamarin.iOS/Facades/System.Runtime.Serialization.Primitives.dll
--reference=/Library/Frameworks/Xamarin.iOS.framework/Versions/Current/lib/mono/Xamarin.iOS/Facades/System.Runtime.Serialization.Xml.dll
--reference=/Library/Frameworks/Xamarin.iOS.framework/Versions/Current/lib/mono/Xamarin.iOS/Facades/System.Security.AccessControl.dll
--reference=/Library/Frameworks/Xamarin.iOS.framework/Versions/Current/lib/mono/Xamarin.iOS/Facades/System.Security.Claims.dll
--reference=/Library/Frameworks/Xamarin.iOS.framework/Versions/Current/lib/mono/Xamarin.iOS/Facades/System.Security.Cryptography.Algorithms.dll
--reference=/Library/Frameworks/Xamarin.iOS.framework/Versions/Current/lib/mono/Xamarin.iOS/Facades/System.Security.Cryptography.Cng.dll
--reference=/Library/Frameworks/Xamarin.iOS.framework/Versions/Current/lib/mono/Xamarin.iOS/Facades/System.Security.Cryptography.Csp.dll
--reference=/Library/Frameworks/Xamarin.iOS.framework/Versions/Current/lib/mono/Xamarin.iOS/Facades/System.Security.Cryptography.DeriveBytes.dll
--reference=/Library/Frameworks/Xamarin.iOS.framework/Versions/Current/lib/mono/Xamarin.iOS/Facades/System.Security.Cryptography.Encoding.dll
--reference=/Library/Frameworks/Xamarin.iOS.framework/Versions/Current/lib/mono/Xamarin.iOS/Facades/System.Security.Cryptography.Encryption.Aes.dll
--reference=/Library/Frameworks/Xamarin.iOS.framework/Versions/Current/lib/mono/Xamarin.iOS/Facades/System.Security.Cryptography.Encryption.dll
--reference=/Library/Frameworks/Xamarin.iOS.framework/Versions/Current/lib/mono/Xamarin.iOS/Facades/System.Security.Cryptography.Encryption.ECDiffieHellman.dll
--reference=/Library/Frameworks/Xamarin.iOS.framework/Versions/Current/lib/mono/Xamarin.iOS/Facades/System.Security.Cryptography.Encryption.ECDsa.dll
--reference=/Library/Frameworks/Xamarin.iOS.framework/Versions/Current/lib/mono/Xamarin.iOS/Facades/System.Security.Cryptography.Hashing.Algorithms.dll
--reference=/Library/Frameworks/Xamarin.iOS.framework/Versions/Current/lib/mono/Xamarin.iOS/Facades/System.Security.Cryptography.Hashing.dll
--reference=/Library/Frameworks/Xamarin.iOS.framework/Versions/Current/lib/mono/Xamarin.iOS/Facades/System.Security.Cryptography.OpenSsl.dll
--reference=/Library/Frameworks/Xamarin.iOS.framework/Versions/Current/lib/mono/Xamarin.iOS/Facades/System.Security.Cryptography.Pkcs.dll
--reference=/Library/Frameworks/Xamarin.iOS.framework/Versions/Current/lib/mono/Xamarin.iOS/Facades/System.Security.Cryptography.Primitives.dll
--reference=/Library/Frameworks/Xamarin.iOS.framework/Versions/Current/lib/mono/Xamarin.iOS/Facades/System.Security.Cryptography.ProtectedData.dll
--reference=/Library/Frameworks/Xamarin.iOS.framework/Versions/Current/lib/mono/Xamarin.iOS/Facades/System.Security.Cryptography.RandomNumberGenerator.dll
--reference=/Library/Frameworks/Xamarin.iOS.framework/Versions/Current/lib/mono/Xamarin.iOS/Facades/System.Security.Cryptography.RSA.dll
--reference=/Library/Frameworks/Xamarin.iOS.framework/Versions/Current/lib/mono/Xamarin.iOS/Facades/System.Security.Cryptography.X509Certificates.dll
--reference=/Library/Frameworks/Xamarin.iOS.framework/Versions/Current/lib/mono/Xamarin.iOS/Facades/System.Security.Principal.dll
--reference=/Library/Frameworks/Xamarin.iOS.framework/Versions/Current/lib/mono/Xamarin.iOS/Facades/System.Security.Principal.Windows.dll
--reference=/Library/Frameworks/Xamarin.iOS.framework/Versions/Current/lib/mono/Xamarin.iOS/Facades/System.Security.SecureString.dll
--reference=/Library/Frameworks/Xamarin.iOS.framework/Versions/Current/lib/mono/Xamarin.iOS/Facades/System.ServiceModel.Duplex.dll
--reference=/Library/Frameworks/Xamarin.iOS.framework/Versions/Current/lib/mono/Xamarin.iOS/Facades/System.ServiceModel.Http.dll
--reference=/Library/Frameworks/Xamarin.iOS.framework/Versions/Current/lib/mono/Xamarin.iOS/Facades/System.ServiceModel.NetTcp.dll
--reference=/Library/Frameworks/Xamarin.iOS.framework/Versions/Current/lib/mono/Xamarin.iOS/Facades/System.ServiceModel.Primitives.dll
--reference=/Library/Frameworks/Xamarin.iOS.framework/Versions/Current/lib/mono/Xamarin.iOS/Facades/System.ServiceModel.Security.dll
--reference=/Library/Frameworks/Xamarin.iOS.framework/Versions/Current/lib/mono/Xamarin.iOS/Facades/System.ServiceProcess.ServiceController.dll
--reference=/Library/Frameworks/Xamarin.iOS.framework/Versions/Current/lib/mono/Xamarin.iOS/Facades/System.Text.Encoding.CodePages.dll
--reference=/Library/Frameworks/Xamarin.iOS.framework/Versions/Current/lib/mono/Xamarin.iOS/Facades/System.Text.Encoding.dll
--reference=/Library/Frameworks/Xamarin.iOS.framework/Versions/Current/lib/mono/Xamarin.iOS/Facades/System.Text.Encoding.Extensions.dll
--reference=/Library/Frameworks/Xamarin.iOS.framework/Versions/Current/lib/mono/Xamarin.iOS/Facades/System.Text.RegularExpressions.dll
--reference=/Library/Frameworks/Xamarin.iOS.framework/Versions/Current/lib/mono/Xamarin.iOS/Facades/System.Threading.AccessControl.dll
--reference=/Library/Frameworks/Xamarin.iOS.framework/Versions/Current/lib/mono/Xamarin.iOS/Facades/System.Threading.dll
--reference=/Library/Frameworks/Xamarin.iOS.framework/Versions/Current/lib/mono/Xamarin.iOS/Facades/System.Threading.Overlapped.dll
--reference=/Library/Frameworks/Xamarin.iOS.framework/Versions/Current/lib/mono/Xamarin.iOS/Facades/System.Threading.Tasks.dll
--reference=/Library/Frameworks/Xamarin.iOS.framework/Versions/Current/lib/mono/Xamarin.iOS/Facades/System.Threading.Tasks.Extensions.dll
--reference=/Library/Frameworks/Xamarin.iOS.framework/Versions/Current/lib/mono/Xamarin.iOS/Facades/System.Threading.Tasks.Parallel.dll
--reference=/Library/Frameworks/Xamarin.iOS.framework/Versions/Current/lib/mono/Xamarin.iOS/Facades/System.Threading.Thread.dll
--reference=/Library/Frameworks/Xamarin.iOS.framework/Versions/Current/lib/mono/Xamarin.iOS/Facades/System.Threading.ThreadPool.dll
--reference=/Library/Frameworks/Xamarin.iOS.framework/Versions/Current/lib/mono/Xamarin.iOS/Facades/System.Threading.Timer.dll
--reference=/Library/Frameworks/Xamarin.iOS.framework/Versions/Current/lib/mono/Xamarin.iOS/Facades/System.ValueTuple.dll
--reference=/Library/Frameworks/Xamarin.iOS.framework/Versions/Current/lib/mono/Xamarin.iOS/Facades/System.Xml.ReaderWriter.dll
--reference=/Library/Frameworks/Xamarin.iOS.framework/Versions/Current/lib/mono/Xamarin.iOS/Facades/System.Xml.XDocument.dll
--reference=/Library/Frameworks/Xamarin.iOS.framework/Versions/Current/lib/mono/Xamarin.iOS/Facades/System.Xml.XmlDocument.dll
--reference=/Library/Frameworks/Xamarin.iOS.framework/Versions/Current/lib/mono/Xamarin.iOS/Facades/System.Xml.XmlSerializer.dll
--reference=/Library/Frameworks/Xamarin.iOS.framework/Versions/Current/lib/mono/Xamarin.iOS/Facades/System.Xml.XPath.dll
--reference=/Library/Frameworks/Xamarin.iOS.framework/Versions/Current/lib/mono/Xamarin.iOS/Facades/System.Xml.XPath.XDocument.dll
--reference=/Library/Frameworks/Xamarin.iOS.framework/Versions/Current/lib/mono/Xamarin.iOS/Facades/System.Xml.XPath.XmlDocument.dll
--reference=/Library/Frameworks/Xamarin.iOS.framework/Versions/Current/lib/mono/Xamarin.iOS/Facades/System.Xml.Xsl.Primitives.dll
--reference=/Users/ocontreras/.nuget/packages/newtonsoft.json/13.0.1/lib/netstandard2.0/Newtonsoft.Json.dll
--reference=/Users/ocontreras/.nuget/packages/xamarin.essentials/1.6.1/lib/xamarinios10/Xamarin.Essentials.dll
--reference=/Users/ocontreras/.nuget/packages/xamarin.forms/5.0.0.2012/lib/Xamarin.iOS10/Xamarin.Forms.Core.dll
--reference=/Users/ocontreras/.nuget/packages/xamarin.forms/5.0.0.2012/lib/Xamarin.iOS10/Xamarin.Forms.Platform.dll
--reference=/Users/ocontreras/.nuget/packages/xamarin.forms/5.0.0.2012/lib/Xamarin.iOS10/Xamarin.Forms.Platform.iOS.dll
--reference=/Users/ocontreras/.nuget/packages/xamarin.forms/5.0.0.2012/lib/Xamarin.iOS10/Xamarin.Forms.Xaml.dll
--reference=/Users/ocontreras/.nuget/packages/xamarin.forms/5.0.0.2012/lib/Xamarin.iOS10/ar/Xamarin.Forms.Platform.iOS.resources.dll
--reference=/Users/ocontreras/.nuget/packages/xamarin.forms/5.0.0.2012/lib/Xamarin.iOS10/ca/Xamarin.Forms.Platform.iOS.resources.dll
--reference=/Users/ocontreras/.nuget/packages/xamarin.forms/5.0.0.2012/lib/Xamarin.iOS10/cs/Xamarin.Forms.Platform.iOS.resources.dll
--reference=/Users/ocontreras/.nuget/packages/xamarin.forms/5.0.0.2012/lib/Xamarin.iOS10/da/Xamarin.Forms.Platform.iOS.resources.dll
--reference=/Users/ocontreras/.nuget/packages/xamarin.forms/5.0.0.2012/lib/Xamarin.iOS10/de/Xamarin.Forms.Platform.iOS.resources.dll
--reference=/Users/ocontreras/.nuget/packages/xamarin.forms/5.0.0.2012/lib/Xamarin.iOS10/el/Xamarin.Forms.Platform.iOS.resources.dll
--reference=/Users/ocontreras/.nuget/packages/xamarin.forms/5.0.0.2012/lib/Xamarin.iOS10/es/Xamarin.Forms.Platform.iOS.resources.dll
--reference=/Users/ocontreras/.nuget/packages/xamarin.forms/5.0.0.2012/lib/Xamarin.iOS10/fi/Xamarin.Forms.Platform.iOS.resources.dll
--reference=/Users/ocontreras/.nuget/packages/xamarin.forms/5.0.0.2012/lib/Xamarin.iOS10/fr/Xamarin.Forms.Platform.iOS.resources.dll
--reference=/Users/ocontreras/.nuget/packages/xamarin.forms/5.0.0.2012/lib/Xamarin.iOS10/he/Xamarin.Forms.Platform.iOS.resources.dll
--reference=/Users/ocontreras/.nuget/packages/xamarin.forms/5.0.0.2012/lib/Xamarin.iOS10/hi/Xamarin.Forms.Platform.iOS.resources.dll
--reference=/Users/ocontreras/.nuget/packages/xamarin.forms/5.0.0.2012/lib/Xamarin.iOS10/hr/Xamarin.Forms.Platform.iOS.resources.dll
--reference=/Users/ocontreras/.nuget/packages/xamarin.forms/5.0.0.2012/lib/Xamarin.iOS10/hu/Xamarin.Forms.Platform.iOS.resources.dll
--reference=/Users/ocontreras/.nuget/packages/xamarin.forms/5.0.0.2012/lib/Xamarin.iOS10/id/Xamarin.Forms.Platform.iOS.resources.dll
--reference=/Users/ocontreras/.nuget/packages/xamarin.forms/5.0.0.2012/lib/Xamarin.iOS10/it/Xamarin.Forms.Platform.iOS.resources.dll
--reference=/Users/ocontreras/.nuget/packages/xamarin.forms/5.0.0.2012/lib/Xamarin.iOS10/ja/Xamarin.Forms.Platform.iOS.resources.dll
--reference=/Users/ocontreras/.nuget/packages/xamarin.forms/5.0.0.2012/lib/Xamarin.iOS10/ko/Xamarin.Forms.Platform.iOS.resources.dll
--reference=/Users/ocontreras/.nuget/packages/xamarin.forms/5.0.0.2012/lib/Xamarin.iOS10/ms/Xamarin.Forms.Platform.iOS.resources.dll
--reference=/Users/ocontreras/.nuget/packages/xamarin.forms/5.0.0.2012/lib/Xamarin.iOS10/nb/Xamarin.Forms.Platform.iOS.resources.dll
--reference=/Users/ocontreras/.nuget/packages/xamarin.forms/5.0.0.2012/lib/Xamarin.iOS10/nl/Xamarin.Forms.Platform.iOS.resources.dll
--reference=/Users/ocontreras/.nuget/packages/xamarin.forms/5.0.0.2012/lib/Xamarin.iOS10/pl/Xamarin.Forms.Platform.iOS.resources.dll
--reference=/Users/ocontreras/.nuget/packages/xamarin.forms/5.0.0.2012/lib/Xamarin.iOS10/pt-BR/Xamarin.Forms.Platform.iOS.resources.dll
--reference=/Users/ocontreras/.nuget/packages/xamarin.forms/5.0.0.2012/lib/Xamarin.iOS10/pt/Xamarin.Forms.Platform.iOS.resources.dll
--reference=/Users/ocontreras/.nuget/packages/xamarin.forms/5.0.0.2012/lib/Xamarin.iOS10/ro/Xamarin.Forms.Platform.iOS.resources.dll
--reference=/Users/ocontreras/.nuget/packages/xamarin.forms/5.0.0.2012/lib/Xamarin.iOS10/ru/Xamarin.Forms.Platform.iOS.resources.dll
--reference=/Users/ocontreras/.nuget/packages/xamarin.forms/5.0.0.2012/lib/Xamarin.iOS10/sk/Xamarin.Forms.Platform.iOS.resources.dll
--reference=/Users/ocontreras/.nuget/packages/xamarin.forms/5.0.0.2012/lib/Xamarin.iOS10/sv/Xamarin.Forms.Platform.iOS.resources.dll
--reference=/Users/ocontreras/.nuget/packages/xamarin.forms/5.0.0.2012/lib/Xamarin.iOS10/th/Xamarin.Forms.Platform.iOS.resources.dll
--reference=/Users/ocontreras/.nuget/packages/xamarin.forms/5.0.0.2012/lib/Xamarin.iOS10/tr/Xamarin.Forms.Platform.iOS.resources.dll
--reference=/Users/ocontreras/.nuget/packages/xamarin.forms/5.0.0.2012/lib/Xamarin.iOS10/uk/Xamarin.Forms.Platform.iOS.resources.dll
--reference=/Users/ocontreras/.nuget/packages/xamarin.forms/5.0.0.2012/lib/Xamarin.iOS10/vi/Xamarin.Forms.Platform.iOS.resources.dll
--reference=/Users/ocontreras/.nuget/packages/xamarin.forms/5.0.0.2012/lib/Xamarin.iOS10/zh-HK/Xamarin.Forms.Platform.iOS.resources.dll
--reference=/Users/ocontreras/.nuget/packages/xamarin.forms/5.0.0.2012/lib/Xamarin.iOS10/zh-Hans/Xamarin.Forms.Platform.iOS.resources.dll
--reference=/Users/ocontreras/.nuget/packages/xamarin.forms/5.0.0.2012/lib/Xamarin.iOS10/zh-Hant/Xamarin.Forms.Platform.iOS.resources.dll
--reference=/Users/ocontreras/Projects/CursoXamarin/CursoXamarin/bin/Debug/netstandard2.0/CursoXamarin.dll
